{
  "project_info": {
    "project_number": "687411730406",
    "firebase_url": "https://universityresturant.firebaseio.com",
    "project_id": "universityresturant",
    "storage_bucket": "universityresturant.appspot.com"
  },
  "client": [
    {
      "client_info": {
        "mobilesdk_app_id": "1:687411730406:android:97e2bcba4dcbb653",
        "android_client_info": {
          "package_name": "com.example.m0d1x.universityresturant"
        }
      },
      "oauth_client": [
        {
          "client_id": "687411730406-rkv3rdc3pqad1nvlaqp47t8jgp3ul592.apps.googleusercontent.com",
          "client_type": 1,
          "android_info": {
            "package_name": "com.example.m0d1x.universityresturant",
            "certificate_hash": "694ff378bce27919c72d6080b35e5e0cd7027443"
          }
        },
        {
          "client_id": "687411730406-vk17lgq07q06p594s8ll39rh254tjjp5.apps.googleusercontent.com",
          "client_type": 3
        }
      ],
      "api_key": [
        {
          "current_key": "AIzaSyBgNNjyBMSNEC7yEv34g4Uy9e45glN7cKY"
        }
      ],
      "services": {
        "analytics_service": {
          "status": 1
        },
        "appinvite_service": {
          "status": 2,
          "other_platform_oauth_client": [
            {
              "client_id": "687411730406-vk17lgq07q06p594s8ll39rh254tjjp5.apps.googleusercontent.com",
              "client_type": 3
            }
          ]
        },
        "ads_service": {
          "status": 2
        }
      }
    },
    {
      "client_info": {
        "mobilesdk_app_id": "1:687411730406:android:0dd369961b7c8c30",
        "android_client_info": {
          "package_name": "com.example.m0d1x.universityresturantserver"
        }
      },
      "oauth_client": [
        {
          "client_id": "687411730406-77olgjhmujg5u3oft7q6n3mbbiipkmfu.apps.googleusercontent.com",
          "client_type": 1,
          "android_info": {
            "package_name": "com.example.m0d1x.universityresturantserver",
            "certificate_hash": "694ff378bce27919c72d6080b35e5e0cd7027443"
          }
        },
        {
          "client_id": "687411730406-vk17lgq07q06p594s8ll39rh254tjjp5.apps.googleusercontent.com",
          "client_type": 3
        }
      ],
      "api_key": [
        {
          "current_key": "AIzaSyBgNNjyBMSNEC7yEv34g4Uy9e45glN7cKY"
        }
      ],
      "services": {
        "analytics_service": {
          "status": 1
        },
        "appinvite_service": {
          "status": 2,
          "other_platform_oauth_client": [
            {
              "client_id": "687411730406-vk17lgq07q06p594s8ll39rh254tjjp5.apps.googleusercontent.com",
              "client_type": 3
            }
          ]
        },
        "ads_service": {
          "status": 2
        }
      }
    }
  ],
  "configuration_version": "1"
}